{
    "current_page": 1,
    "data": [
        {
            "id": 1,
            "created_at": "2016-10-20 11:05:00",
            "updated_at": "2016-10-20 11:05:00",
            "name": "ЗИВТ-151"
        }
    ],
    "first_page_url": "http:\/\/localhost\/groups?page=1",
    "from": 1,
    "last_page": 4,
    "last_page_url": "http:\/\/localhost\/groups?page=4",
    "next_page_url": "http:\/\/localhost\/groups?page=2",
    "path": "http:\/\/localhost\/groups",
    "per_page": 1,
    "prev_page_url": null,
    "to": 1,
    "total": 4
}